// Jest Snapshot v1, https://goo.gl/fbAQLP

exports[`Hotel Auto Dynamic Widget 测试 renders the correct markup 1`] = `
<div class="container">
    <div class="list">
        <div class="item"><a href="/redirect?aid=2&amp;aff_adid=559682&amp;_currency=CNY&amp;k_site=https%3A%2F%2Fwww.klook.com%2Fzh-CN%2Fhotels%2F269979%2F&amp;aff_kepler_id=4755cf7c-91a4-45cf-8064-c106156a839f&amp;aff_exp_id=&amp;aff_group_id=" target="_blank" class="item_link">
                <div class="img" style="background-image: url(https://res.klook.com/image/upload/v1614913545/hotel/zu13pkpfbmvizlqauy72.jpg);"><span tabindex="1" class="city_name">香港</span></div>
                <div class="desc_info">
                    <div class="product_info"><span class="start_desc">酒店 · 4星（高档）</span> <span tabindex="2" class="name">诺富特东荟城酒店</span>
                        <div tabindex="3" class="score_info">
                            <div class="score_container"><span><img src="../../../../imgs/render/dynamic_widget/icon/yellow.svg" alt="" class="star"></span> <span class="score">4.1</span></div> <span class="review">2461 评价</span>
                        </div>
                    </div>
                    <div tabindex="4" class="price"><span>
                            ¥ 935 起
                        </span></div>
                </div>
            </a></div>
        <div class="item"><a href="/redirect?aid=2&amp;aff_adid=559682&amp;_currency=CNY&amp;k_site=https%3A%2F%2Fwww.klook.com%2Fzh-CN%2Fhotels%2F442565%2F&amp;aff_kepler_id=4755cf7c-91a4-45cf-8064-c106156a839f&amp;aff_exp_id=&amp;aff_group_id=" target="_blank" class="item_link">
                <div class="img" style="background-image: url(https://res.klook.com/image/upload/v1614745118/hotel/iuysj1ejsposob5qawph.jpg);"><span tabindex="5" class="city_name">香港</span></div>
                <div class="desc_info">
                    <div class="product_info"><span class="start_desc">酒店 · 5星（豪华）</span> <span tabindex="6" class="name">香港港丽酒店</span>
                        <div tabindex="7" class="score_info">
                            <div class="score_container"><span><img src="../../../../imgs/render/dynamic_widget/icon/yellow.svg" alt="" class="star"></span> <span class="score">4.6</span></div> <span class="review">1530 评价</span>
                        </div>
                    </div>
                    <div tabindex="8" class="price"><span>
                            ¥ 1,403 起
                        </span></div>
                </div>
            </a></div>
        <div class="item"><a href="/redirect?aid=2&amp;aff_adid=559682&amp;_currency=CNY&amp;k_site=https%3A%2F%2Fwww.klook.com%2Fzh-CN%2Fhotels%2F421752%2F&amp;aff_kepler_id=4755cf7c-91a4-45cf-8064-c106156a839f&amp;aff_exp_id=&amp;aff_group_id=" target="_blank" class="item_link">
                <div class="img" style="background-image: url(https://res.klook.com/image/upload/v1615432399/hotel/owpntn7zicnfog0bp4xf.jpg);"><span tabindex="9" class="city_name">香港</span></div>
                <div class="desc_info">
                    <div class="product_info"><span class="start_desc">酒店 · 5星（豪华）</span> <span tabindex="10" class="name">香港美利酒店</span>
                        <div tabindex="11" class="score_info">
                            <div class="score_container"><span><img src="../../../../imgs/render/dynamic_widget/icon/yellow.svg" alt="" class="star"></span> <span class="score">4.6</span></div> <span class="review">1024 评价</span>
                        </div>
                    </div>
                    <div tabindex="12" class="price"><span>
                            ¥ 2,079 起
                        </span></div>
                </div>
            </a></div>
    </div>
    <div class="button"><a href="/redirect?aid=2&amp;aff_adid=559682&amp;_currency=CNY&amp;k_site=https%3A%2F%2Fwww.klook.com%2Fzh-CN%2Fcity%2F2-" target="_blank">
            <div tabindex="13" class="view_more">
                查看更多
            </div>
        </a></div>
    <div class="power_link"><a href="/zh-CN/home" target="_blank">
            <div tabindex="14" class="powered">
                由 KLOOK 强力驱动
            </div>
        </a></div>
</div>
`;
