<svg xmlns="http://www.w3.org/2000/svg" width="20" height="20" viewBox="0 0 20 20">
    <path fill-opacity=".54" fill-rule="evenodd" d="M11.127 7.348L8.771 4.99c-.163-.163-.426-.163-.59 0-.08.082-.121.188-.121.295 0 .107.04.213.122.294L12.6 10l-2.063 2.062-2.356 2.357c-.081.082-.122.189-.122.295 0 .107.04.214.122.294.081.082.188.123.295.123.106 0 .213-.04.294-.123l4.714-4.714c.082-.081.122-.188.122-.294 0-.107-.04-.213-.122-.295l-2.357-2.357z"/>
</svg>
