<svg xmlns="http://www.w3.org/2000/svg" width="97" height="25" viewBox="0 0 97 25">
    <path fill="#FFF" fill-rule="evenodd" d="M64.109 21.061h-.06c-2.26 0-4.39-.881-5.993-2.483-1.605-1.603-2.498-3.738-2.513-6.013-.016-2.285.855-4.44 2.45-6.066 1.596-1.627 3.727-2.531 5.998-2.547h.061c2.26 0 4.388.882 5.992 2.484 1.605 1.602 2.498 3.738 2.513 6.012.032 4.717-3.758 8.581-8.448 8.613m-20.932 0h-.06c-2.26 0-4.389-.881-5.993-2.483-1.605-1.603-2.497-3.738-2.513-6.013-.016-2.285.855-4.44 2.45-6.066 1.597-1.627 3.727-2.531 5.998-2.547h.062c2.26 0 4.388.882 5.992 2.484 1.605 1.602 2.497 3.738 2.512 6.012.032 4.717-3.758 8.581-8.448 8.613M0 .001c2.16 0 3.912 1.76 3.912 3.933v17.132C3.912 23.24 2.16 25 0 25zM21.409 0c2.16 0 3.912 1.761 3.912 3.934v17.143h4.823c2.155 0 3.902 1.756 3.902 3.923H21.409zm56.669 0l.201.005c2.067.106 3.71 1.824 3.71 3.929v17.132c0 2.173-1.75 3.934-3.911 3.934V0zM43.12.015c4.39 0 8.255 2.294 10.464 5.76C55.776 2.337 59.6.046 63.965.016h.087c6.821 0 12.373 5.536 12.42 12.407.047 6.898-5.477 12.53-12.337 12.576h-.087c-4.39 0-8.255-2.293-10.464-5.76-2.192 3.44-6.016 5.73-10.381 5.76h-.087c-6.821 0-12.373-5.536-12.42-12.406C30.649 5.693 36.173.062 43.034.015zM95.008.011c1.528 1.536 1.528 4.027 0 5.563L88.12 12.5l6.888 6.926c1.528 1.537 1.528 4.027 0 5.564L82.588 12.5zm-77.983 0c1.528 1.536 1.528 4.027 0 5.563L10.137 12.5l6.888 6.926c1.528 1.536 1.528 4.027 0 5.563L4.605 12.5z"/>
</svg>
