// Jest Snapshot v1, https://goo.gl/fbAQLP

exports[`TTD Dynamic Widget 测试 renders the correct markup 1`] = `
<div class="container" style="">
    <div class="list">
        <div class="item"><a href="/redirect?aid=2&amp;aff_adid=558304&amp;_currency=CNY&amp;k_site=https%3A%2F%2Fwww.klook.com%2Fzh-CN%2Factivity%2F696&amp;aff_kepler_id=&amp;aff_exp_id=&amp;aff_group_id=" target="_blank" class="item_link">
                <div class="img" style="background-image: url(https://res.klook.com/image/upload/fl_lossy.progressive,q_60,f_auto/c_fill,w_650,h_420/activities/87a9c249-%E7%A7%80%E5%A7%91%E5%B3%A6%E6%BA%AA%E6%B3%9B%E8%88%9F.jpg);">
                    <div class="info_wrapper">
                        <!---->
                    </div>
                </div>
                <div class="desc_info">
                    <div class="product_info"><span tabindex="2" class="title">半日泛舟秀姑峦溪</span>
                        <div tabindex="1" class="city_name">花莲</div>
                        <div tabindex="3" class="score_info"><span class="score">4.6</span> <span class="review">(1049 评价)</span></div>
                    </div>
                    <div tabindex="4" class="price"><span class="price_value">¥ 105</span> <span class="market_price">¥ 175</span></div>
                </div>
            </a></div>
        <div class="item"><a href="/redirect?aid=2&amp;aff_adid=558304&amp;_currency=CNY&amp;k_site=https%3A%2F%2Fwww.klook.com%2Fzh-CN%2Factivity%2F697&amp;aff_kepler_id=&amp;aff_exp_id=&amp;aff_group_id=" target="_blank" class="item_link">
                <div class="img" style="background-image: url(https://res.klook.com/image/upload/fl_lossy.progressive,q_60,f_auto/c_fill,w_650,h_420/activities/waapf47uysrrbpdjyexr.jpg);">
                    <div class="info_wrapper">
                        <!---->
                    </div>
                </div>
                <div class="desc_info">
                    <div class="product_info"><span tabindex="6" class="title">限时75折起｜花莲｜多罗满海洋赏鲸导览体验</span>
                        <div tabindex="5" class="city_name">花莲</div>
                        <div tabindex="7" class="score_info"><span class="score">4.7</span> <span class="review">(797 评价)</span></div>
                    </div>
                    <div tabindex="8" class="price"><span class="price_value">¥ 157</span> <span class="market_price">¥ 186</span></div>
                </div>
            </a></div>
        <div class="item"><a href="/redirect?aid=2&amp;aff_adid=558304&amp;_currency=CNY&amp;k_site=https%3A%2F%2Fwww.klook.com%2Fzh-CN%2Factivity%2F3725&amp;aff_kepler_id=&amp;aff_exp_id=&amp;aff_group_id=" target="_blank" class="item_link">
                <div class="img" style="background-image: url(https://res.klook.com/image/upload/fl_lossy.progressive,q_60,f_auto/c_fill,w_650,h_420/activities/zfxttrgqogrwtmkhpzer.jpg);">
                    <div class="info_wrapper">
                        <!---->
                    </div>
                </div>
                <div class="desc_info">
                    <div class="product_info"><span tabindex="10" class="title">早鸟85折｜花莲｜清水断崖独木舟体验・一泊二食星空野营｜含饭店接送</span>
                        <div tabindex="9" class="city_name">花莲</div>
                        <div tabindex="11" class="score_info"><span class="score">4.6</span> <span class="review">(325 评价)</span></div>
                    </div>
                    <div tabindex="12" class="price"><span class="price_value">¥ 373</span> <span class="market_price">¥ 536</span></div>
                </div>
            </a></div>
    </div>
    <div class="button"><a href="/redirect?aid=2&amp;aff_adid=558304&amp;_currency=CNY&amp;k_site=https%3A%2F%2Fwww.klook.com%2Fzh-CN%2Fcity%2F20-&amp;aff_kepler_id=&amp;aff_exp_id=&amp;aff_group_id=" target="_blank">
            <div tabindex="13" class="view_more">
                查看更多
            </div>
        </a></div>
    <div class="power_link"><a href="/zh-CN/home" target="_blank">
            <div tabindex="14" class="powered">由 KLOOK 强力驱动</div>
        </a></div>
</div>
`;
