<svg xmlns="http://www.w3.org/2000/svg" width="20" height="20" viewBox="0 0 20 20">
    <path fill="#FFF" fill-rule="evenodd" d="M9.083 2c3.912 0 7.084 3.171 7.084 7.083 0 1.786-.661 3.417-1.751 4.663l3.283 3.283c.195.195.195.512 0 .707-.174.174-.443.193-.638.058l-.07-.058-3.285-3.285c-1.24 1.07-2.856 1.716-4.623 1.716C5.171 16.167 2 12.995 2 9.083 2 5.171 5.171 2 9.083 2zm0 1C5.723 3 3 5.724 3 9.083c0 3.36 2.724 6.084 6.083 6.084 3.36 0 6.084-2.724 6.084-6.084C15.167 5.723 12.443 3 9.083 3z"/>
</svg>
