<svg xmlns="http://www.w3.org/2000/svg" width="40" height="24" viewBox="0 0 40 24">
    <g fill="none" fill-rule="evenodd">
        <path fill="#FFF" d="M0 0h40v24H0z"/>
        <path fill="#25ABEE" d="M6.741 12.11c-.281.028-.81.152-1.1.407-.867.754-.348 2.133 1.407 2.133 1.02 0 2.039-.651 2.84-1.692-1.139-.554-2.104-.95-3.147-.848zm6.546.952c1.624.543 1.993.572 1.993.572V7.802c0-.995-.808-1.802-1.807-1.802H5.807C4.808 6 4 6.807 4 7.802v7.644c0 .995.808 1.802 1.807 1.802h7.666c.999 0 1.807-.807 1.807-1.802v-.074s-2.934-1.22-4.416-1.93c-.993 1.22-2.275 1.96-3.606 1.96-2.25 0-3.015-1.965-1.95-3.257.233-.282.629-.551 1.242-.702.96-.235 2.487.147 3.918.618.257-.473.474-.994.635-1.549h-4.41v-.445h2.274v-.799H6.212v-.446h2.755V7.683s0-.192.195-.192h1.111v1.331h2.724v.446h-2.724v.799h2.224a9.059 9.059 0 0 1-.942 2.37c.675.244 1.28.475 1.732.625zm18.048-5.299h3.229v.64h1.153v-.758-.004a.307.307 0 0 0-.3-.311h-1.866v-.596h-1.206v.596h-2.163v1.072h1.153v-.639zm-6.986-.974l-1.182 2.796h.907v3.328h.991V8.499h-.359l.747-1.71H24.35zm11.5 5.97l-.362-1.223a.188.188 0 0 0-.179-.135h-.96l.278.94h-1.128v-1.82h2.216v-.434h-2.216V9.23h2.216v-.433h-5.532v.433h2.216v.857h-2.216v.434h2.216v1.82h-2.216v.434h5.667l-.004-.015h.004zm-8.964-3.678a.23.23 0 0 0-.204-.13h-.858l.668 2.106h1.016l-.622-1.976zM29.06 6.84h-1.03v1.077h-2.541v.433h2.54v3.872a.178.178 0 0 1-.166.163h-.524v.448h1.336a.407.407 0 0 0 .385-.401V8.35h.419v-.433h-.42V6.84zm-6.432 1.962h-1.98v-.71h2.296v-.441h-2.296v-.9h-1.023a.206.206 0 0 0-.203.21v.69h-2.28v.441h2.28v.71h-1.924v.442h3.832s-.212.829-1.263 1.72c-.942-.713-1.257-1.28-1.257-1.28H17.78c.416.72 1.007 1.297 1.643 1.755-.584.38-1.343.747-2.323 1.04v.529s1.513-.286 2.974-1.147c1.464.854 2.935 1.147 2.935 1.147v-.501a12.214 12.214 0 0 1-2.272-1.083c.848-.628 1.591-1.481 1.89-2.622zm-3.25 7.066l.172.517h.48l-.945-2.566h-.367l-.942 2.566h.48l.179-.517h.944zm-.464-1.388l.355 1.064h-.722l.367-1.064zm2.63-.661v2.566h1.554v-.35h-1.093V13.82h-.461zm3.247 0h.462v2.566h-.462v-2.566zm3.33 0h-.997v2.566h.462v-.987h.535c.498 0 .846-.324.846-.79 0-.464-.348-.79-.846-.79zm-.025 1.227h-.51v-.878h.51c.256 0 .409.224.409.44 0 .212-.144.438-.41.438zm3.581.822l.172.517h.48l-.946-2.566h-.366l-.942 2.566h.48l.178-.517h.945zm-.464-1.388l.355 1.064h-.722l.367-1.064zm3.687-.661l-.504 1.093-.51-1.093h-.5l.777 1.512v1.054h.459V15.33l.002-.006.775-1.506h-.5z"/>
    </g>
</svg>
