<svg xmlns="http://www.w3.org/2000/svg" width="16" height="16" viewBox="0 0 16 16">
    <path fill="#666" fill-rule="evenodd" d="M8 9.485L2.767 4.252 1.636 5.384 8 11.748l6.364-6.364-1.131-1.132L8 9.485z"/>
</svg>
