<?xml version="1.0" encoding="utf-8"?>
<!-- Generator: Adobe Illustrator 21.0.0, SVG Export Plug-In . SVG Version: 6.00 Build 0)  -->
<svg version="1.1" id="图层_1" xmlns="http://www.w3.org/2000/svg" xmlns:xlink="http://www.w3.org/1999/xlink" x="0px" y="0px"
	 viewBox="0 0 24 24" style="enable-background:new 0 0 24 24;" xml:space="preserve">
<style type="text/css">
	.st0{fill:#7ED321;}
</style>
<path class="st0" d="M12,23C5.9,23,1,18.1,1,12C1,5.9,5.9,1,12,1s11,4.9,11,11C23,18.1,18.1,23,12,23z M12,2C6.5,2,2,6.5,2,12
	s4.5,10,10,10c5.5,0,10-4.5,10-10S17.5,2,12,2z"/>
<path class="st0" d="M9.5,17.7l-3.9-4.2c-0.2-0.2-0.2-0.5,0-0.7c0.2-0.2,0.5-0.2,0.7,0l3.2,3.4l8.1-8.6c0.2-0.2,0.5-0.2,0.7,0
	s0.2,0.5,0,0.7L9.5,17.7z"/>
</svg>
