<svg width="89" height="114" viewBox="0 0 89 114" fill="none" xmlns="http://www.w3.org/2000/svg">
<path fill-rule="evenodd" clip-rule="evenodd" d="M39.6657 66.0992L30.2435 63.0295L0.245605 108.502L8.74561 113.746L39.6657 66.0992Z" fill="#07B295"/>
<path fill-rule="evenodd" clip-rule="evenodd" d="M40.6999 12.1219C40.6999 12.1219 59.0781 35.4277 58.9183 62.0628C58.9183 62.0628 45.9137 71.9212 29.0203 55.2908C12.127 38.6605 29.9825 8.5095 40.6999 12.1219Z" fill="#78E4BF"/>
<path opacity="0.4" fill-rule="evenodd" clip-rule="evenodd" d="M76.7602 49.2445C83.1033 34.8695 76.5922 18.0741 62.2171 11.7309C47.8421 5.38776 31.0467 11.8989 24.7035 26.2739C18.3604 40.649 24.8715 57.4444 39.2466 63.7875C53.6216 70.1307 70.417 63.6195 76.7602 49.2445Z" fill="white"/>
<path fill-rule="evenodd" clip-rule="evenodd" d="M30.3196 58.7632L26.0347 63.9004C26.0347 63.9004 32.7301 72.174 40.7439 71.1252L42.4519 65.3454C42.4519 65.3454 35.5867 63.3611 30.3196 58.7632Z" fill="#07B295"/>
<path fill-rule="evenodd" clip-rule="evenodd" d="M17.6245 36.3565C17.6245 54.5604 32.3817 69.3176 50.5855 69.3176C68.7788 69.2919 83.5209 54.5498 83.5466 36.3565C83.5466 18.1527 68.7894 3.39551 50.5855 3.39551C32.3817 3.39551 17.6245 18.1527 17.6245 36.3565ZM26.6538 36.3479C26.6551 23.1316 37.3693 12.4184 50.5855 12.4184V12.4084C63.8 12.4304 74.5044 23.1422 74.5172 36.3567C74.5135 49.573 63.7973 60.2842 50.5811 60.2818C37.3648 60.2793 26.6526 49.5641 26.6538 36.3479Z" fill="#07B295"/>
<path opacity="0.52" fill-rule="evenodd" clip-rule="evenodd" d="M31.5043 43.1218C31.5043 43.1218 26.1773 18.5176 52.8491 14.6621C52.8491 14.6621 33.5785 22.373 31.5043 43.1218Z" fill="white"/>
</svg>
