<svg width="73" height="72" viewBox="0 0 73 72" fill="none" xmlns="http://www.w3.org/2000/svg">
<path fill-rule="evenodd" clip-rule="evenodd" d="M30.8636 38H18.1364C16.1281 38 14.5 39.6281 14.5 41.6364V54.3636C14.5 56.3719 16.1281 58 18.1364 58H30.8636C32.8719 58 34.5 56.3719 34.5 54.3636V41.6364C34.5 39.6281 32.8719 38 30.8636 38ZM16.3182 41.6364C16.3182 40.6322 17.1322 39.8182 18.1364 39.8182H30.8636C31.8678 39.8182 32.6818 40.6322 32.6818 41.6364V54.3636C32.6818 55.3678 31.8678 56.1818 30.8636 56.1818H18.1364C17.1322 56.1818 16.3182 55.3678 16.3182 54.3636V41.6364Z" fill="#07B295"/>
<path fill-rule="evenodd" clip-rule="evenodd" d="M54.8636 14H42.1364C40.1281 14 38.5 15.6281 38.5 17.6364V30.3636C38.5 32.3719 40.1281 34 42.1364 34H54.8636C56.8719 34 58.5 32.3719 58.5 30.3636V17.6364C58.5 15.6281 56.8719 14 54.8636 14ZM40.3182 17.6364C40.3182 16.6322 41.1322 15.8182 42.1364 15.8182H54.8636C55.8678 15.8182 56.6818 16.6322 56.6818 17.6364V30.3636C56.6818 31.3678 55.8678 32.1818 54.8636 32.1818H42.1364C41.1322 32.1818 40.3182 31.3678 40.3182 30.3636V17.6364Z" fill="#07B295"/>
<path fill-rule="evenodd" clip-rule="evenodd" d="M54.8636 38H42.1364C40.1281 38 38.5 39.6281 38.5 41.6364V54.3636C38.5 56.3719 40.1281 58 42.1364 58H54.8636C56.8719 58 58.5 56.3719 58.5 54.3636V41.6364C58.5 39.6281 56.8719 38 54.8636 38ZM40.3182 41.6364C40.3182 40.6322 41.1322 39.8182 42.1364 39.8182H54.8636C55.8678 39.8182 56.6818 40.6322 56.6818 41.6364V54.3636C56.6818 55.3678 55.8678 56.1818 54.8636 56.1818H42.1364C41.1322 56.1818 40.3182 55.3678 40.3182 54.3636V41.6364Z" fill="#07B295"/>
<path d="M18.5 22.5L22.7 27L32.5 18" stroke="#FF5722" stroke-width="2" stroke-linecap="round" stroke-linejoin="round"/>
</svg>
