<svg width="164" height="142" viewBox="0 0 164 142" fill="none" xmlns="http://www.w3.org/2000/svg">
<g clip-path="url(#clip0)">
<path opacity="0.2" d="M149.726 53.6101C136.822 44.2431 118.507 51.0992 106.138 40.4926C101.321 36.3624 98.6203 30.3581 95.1842 25.0208C86.3065 11.2285 71.1907 1.2034 54.8462 0.122009C27.347 -1.69745 7.61221 16.7754 2.40356 43.0278C-3.60885 73.3361 7.89961 105.206 32.4064 124.135C69.715 152.952 150.49 149.528 162.725 94.479C165.952 79.9637 162.252 62.5832 149.723 53.6101" fill="#DBDBDB"/>
<path d="M111.463 116.316C96.8094 119.449 81.8169 120.701 66.8475 120.039C66.8064 120.039 65.2438 123.823 65.0583 124.182C64.2924 125.66 63.446 127.097 62.6896 128.58C61.1229 131.365 59.7751 134.268 58.6582 137.262C75.6177 142.465 95.0288 143.532 112.548 139.715C112.597 138.906 112.597 138.027 112.652 137.116C112.794 134.795 112.845 132.475 112.803 130.155C112.723 125.513 112.275 120.886 111.463 116.316Z" fill="#03B193"/>
<path fill-rule="evenodd" clip-rule="evenodd" d="M77.3854 45.7761C77.3444 45.8259 78.5981 46.0498 79.2597 46.3844C80.4802 46.9944 81.4569 48.0028 82.0287 49.2434C83.1594 51.7384 80.7828 53.4107 80.5617 55.7546C80.4536 56.8376 81.2558 58.0668 80.8373 59.0983C80.3914 59.877 79.6587 60.4496 78.7963 60.6932C77.4051 61.1325 76.0434 61.661 74.7198 62.2753C73.6564 62.8414 72.7261 63.6287 71.9912 64.5844C71.1109 65.7315 70.6268 67.2234 68.9119 67.1056C68.1739 67.0383 67.4609 66.8031 66.8274 66.4178C66.1939 66.0326 65.6566 65.5075 65.2563 64.8826C65.0166 64.2124 64.6913 63.5762 64.2884 62.9897C63.7861 62.655 63.2041 62.4598 62.6019 62.4241C61.8481 62.2552 61.1612 61.8662 60.628 61.3062C60.3251 60.9537 60.1006 60.5405 59.9698 60.0941C59.8389 59.6477 59.8046 59.1785 59.8692 58.7179C59.9752 58.1805 60.0258 57.6336 60.0201 57.0859C59.9324 56.1081 59.0205 55.5457 58.7718 54.6439C58.6617 54.0639 58.7112 53.4649 58.9147 52.9108C59.3308 51.5498 60.0828 50.3158 61.101 49.3231C62.3719 48.0261 64.0429 47.1974 65.843 46.9714C66.7968 46.8575 68.0711 47.0812 68.9767 46.662C69.4269 46.379 69.7577 45.9402 69.906 45.4288C70.1559 44.8777 70.5058 44.378 70.938 43.955C73.0476 42.1427 77.387 45.7792 77.387 45.7792" fill="#0D5060"/>
<path fill-rule="evenodd" clip-rule="evenodd" d="M71.1156 65.2664C71.9079 67.9935 72.0763 70.8645 71.6083 73.6659C71.189 76.3935 68.0781 77.1521 68.0781 77.1521C68.0781 77.1521 74.1151 82.7085 81.5226 79.7492C86.5702 77.7327 87.8754 70.6409 87.8754 70.6409C87.0571 71.0902 86.1058 71.2327 85.1922 71.0428C84.2786 70.8529 83.4624 70.3429 82.8901 69.6045C80.583 66.956 79.4627 62.5482 79.4627 62.5482L71.1156 65.2664Z" fill="#FFA788"/>
<path fill-rule="evenodd" clip-rule="evenodd" d="M77.9034 53.5404C77.8726 53.7397 78.6487 54.7309 78.7395 54.935C79.4148 56.2919 80.0208 57.6822 80.5554 59.1007C81.3047 61.1179 81.9032 63.4873 81.2187 65.597C79.8472 69.8047 75.1778 69.8339 72.277 67.3887C71.8769 67.0598 71.4475 66.7686 70.994 66.5187C69.6344 65.9488 68.454 65.021 67.5777 63.8337C66.3657 61.947 67.9464 60.3917 69.9795 61.1282C70.0466 61 70.0331 60.8118 70.0892 60.6805C70.2878 60.2809 70.5485 59.9154 70.8614 59.5976C72.2375 58.2528 74.2896 57.7647 75.6058 56.317C76.3953 55.4651 76.4404 53.6898 77.8623 53.5877" fill="#FFB493"/>
<path fill-rule="evenodd" clip-rule="evenodd" d="M46.3204 35.8329C46.3204 35.8329 45.6098 31.9212 46.5691 28.9167C47.5284 25.9122 52.5847 21.4577 53.5219 23.2289C54.291 24.6829 52.6849 27.7333 52.7434 30.1516C52.775 31.4497 54.1117 31.0217 54.3225 31.6364C54.5333 32.251 50.903 37.0947 50.903 37.0947L46.3204 35.8329Z" fill="#FFA788"/>
<path fill-rule="evenodd" clip-rule="evenodd" d="M94.3781 34.3015L99.2251 32.9845C99.2251 32.9845 104.729 25.4939 104.236 22.8588C103.744 20.2238 98.8145 24.7517 96.8422 25.9866C94.87 27.2214 92.653 25.5752 91.9953 26.5625C91.3376 27.5497 94.3773 34.2999 94.3773 34.2999" fill="#FFA788"/>
<path d="M111.692 4.61832L43.1521 10.3298C43.1814 10.683 43.141 11.0385 43.0331 11.376C42.9253 11.7136 42.7521 12.0266 42.5235 12.2971C42.295 12.5676 42.0155 12.7905 41.701 12.9527C41.3865 13.115 41.0432 13.2135 40.6907 13.2428C40.3381 13.2722 39.9833 13.2317 39.6464 13.1237C39.3095 13.0156 38.9972 12.8422 38.7272 12.6132C38.4572 12.3842 38.2349 12.104 38.0729 11.7889C37.9109 11.4738 37.8125 11.1299 37.7832 10.7767L31.3539 11.3131C30.7892 11.36 30.2392 11.5181 29.7355 11.7781C29.2318 12.0381 28.7841 12.3951 28.4182 12.8286C28.0522 13.262 27.7751 13.7635 27.6027 14.3043C27.4303 14.8451 27.3659 15.4147 27.4133 15.9805L28.5873 30.1278C28.6343 30.6935 28.7921 31.2445 29.0517 31.7491C29.3112 32.2538 29.6674 32.7023 30.1 33.069C30.5326 33.4356 31.0332 33.7133 31.5729 33.8861C32.1126 34.0589 32.681 34.1235 33.2457 34.0762L39.7113 33.5373C39.7429 32.8871 40.0092 32.2706 40.4607 31.8024C40.9122 31.3343 41.5181 31.0464 42.1656 30.9924C42.8131 30.9385 43.4581 31.1221 43.9806 31.5091C44.5031 31.896 44.8675 32.46 45.006 33.096L113.582 27.3813C114.147 27.3342 114.697 27.1761 115.201 26.916C115.704 26.6559 116.152 26.299 116.518 25.8656C116.884 25.4321 117.161 24.9308 117.333 24.39C117.506 23.8492 117.57 23.2798 117.523 22.714L116.348 8.56652C116.253 7.42436 115.709 6.36671 114.836 5.62628C113.963 4.88585 112.832 4.52332 111.692 4.61832Z" fill="#FF9700"/>
<path d="M42.0238 29.4151C41.9644 29.4202 41.9047 29.4137 41.8479 29.3956C41.7911 29.3775 41.7384 29.3484 41.6928 29.3099C41.6473 29.2713 41.6098 29.2242 41.5825 29.1712C41.5551 29.1181 41.5385 29.0601 41.5335 29.0006L41.4151 27.6408C41.405 27.5206 41.443 27.4014 41.5205 27.3092C41.5981 27.217 41.7089 27.1592 41.8288 27.1487C41.8883 27.1425 41.9485 27.1484 42.0057 27.1659C42.0629 27.1834 42.1161 27.2123 42.162 27.2507C42.208 27.2891 42.2458 27.3362 42.2731 27.3895C42.3005 27.4428 42.317 27.5011 42.3215 27.5608L42.4383 28.9224C42.4438 28.9821 42.4373 29.0422 42.4194 29.0993C42.4014 29.1565 42.3723 29.2096 42.3338 29.2554C42.2952 29.3012 42.248 29.339 42.1948 29.3664C42.1416 29.3939 42.0834 29.4103 42.0238 29.4151ZM41.7499 26.2439C41.6301 26.2535 41.5113 26.2153 41.4195 26.1377C41.3277 26.06 41.2702 25.9491 41.2595 25.8292L41.1427 24.4694C41.1375 24.4097 41.1441 24.3498 41.1621 24.2927C41.1801 24.2356 41.209 24.1827 41.2475 24.1368C41.2859 24.091 41.333 24.053 41.386 24.0254C41.439 23.9978 41.4969 23.9809 41.5565 23.9757C41.6761 23.9661 41.7947 24.0041 41.8865 24.0816C41.9783 24.159 42.0359 24.2697 42.0468 24.3894L42.1628 25.7495C42.1729 25.8697 42.1352 25.989 42.0578 26.0815C41.9805 26.1739 41.8698 26.2319 41.7499 26.2429V26.2439ZM41.4774 23.0707C41.3576 23.0806 41.2388 23.0426 41.1469 22.9649C41.0551 22.8872 40.9976 22.7763 40.9871 22.6563L40.8687 21.2972C40.8584 21.1769 40.8961 21.0575 40.9735 20.965C41.0508 20.8725 41.1617 20.8144 41.2817 20.8035C41.4014 20.7935 41.5203 20.8314 41.6122 20.909C41.7041 20.9865 41.7615 21.0975 41.772 21.2174L41.8888 22.5773C41.8991 22.6973 41.8616 22.8164 41.7846 22.9089C41.7075 23.0013 41.5971 23.0595 41.4774 23.0707ZM41.2035 19.8978C41.0837 19.9072 40.9649 19.8691 40.873 19.7915C40.7811 19.714 40.7234 19.6032 40.7124 19.4833L40.5955 18.1219C40.5902 18.0623 40.5968 18.0022 40.6147 17.9452C40.6327 17.8882 40.6617 17.8353 40.7001 17.7895C40.7386 17.7438 40.7858 17.7061 40.8388 17.6787C40.8919 17.6513 40.9498 17.6347 41.0093 17.6298C41.129 17.62 41.2476 17.6581 41.3392 17.7358C41.4308 17.8136 41.4879 17.9244 41.498 18.0443L41.6164 19.4043C41.6261 19.5246 41.5881 19.6437 41.5107 19.7361C41.4332 19.8285 41.3226 19.8865 41.2027 19.8978H41.2035ZM40.9287 16.7225C40.8694 16.7276 40.8097 16.7209 40.753 16.7028C40.6963 16.6847 40.6438 16.6555 40.5983 16.617C40.5529 16.5785 40.5155 16.5314 40.4884 16.4784C40.4612 16.4253 40.4448 16.3674 40.44 16.308L40.3215 14.9489C40.3163 14.8894 40.323 14.8294 40.341 14.7724C40.359 14.7154 40.388 14.6625 40.4264 14.6168C40.4648 14.571 40.512 14.5333 40.565 14.5059C40.618 14.4784 40.6758 14.4618 40.7353 14.4568C40.8548 14.4467 40.9734 14.4845 41.0653 14.5617C41.1572 14.6389 41.2148 14.7493 41.2256 14.869L41.3425 16.2311C41.3478 16.2907 41.3413 16.3508 41.3233 16.4079C41.3054 16.4649 41.2763 16.5178 41.2378 16.5635C41.1994 16.6093 41.1523 16.647 41.0992 16.6744C41.0462 16.7018 40.9882 16.7184 40.9287 16.7232V16.7225Z" fill="#F6BF80"/>
<path d="M100.742 12.2493L53.173 16.217C52.4352 16.2786 51.8869 16.9277 51.9484 17.6669C52.0098 18.406 52.6577 18.9554 53.3954 18.8939L100.964 14.9262C101.702 14.8646 102.25 14.2155 102.189 13.4763C102.127 12.7371 101.479 12.1878 100.742 12.2493Z" fill="#F6BF80"/>
<path d="M86.9668 20.1777L53.7321 22.9498C52.9943 23.0113 52.446 23.6605 52.5074 24.3996C52.5689 25.1388 53.2167 25.6882 53.9545 25.6266L87.1893 22.8545C87.927 22.793 88.4753 22.1439 88.4139 21.4047C88.3525 20.6655 87.7046 20.1162 86.9668 20.1777Z" fill="#F6BF80"/>
<path fill-rule="evenodd" clip-rule="evenodd" d="M45.1324 35.5222L52.0014 37.3188C52.0014 37.3188 50.1066 82.1098 77.5039 77.8064C88.9137 76.0146 90.9136 63.5608 91.8531 54.0102C92.9585 42.7873 93.1953 34.4083 93.1953 34.4083L100.711 32.6679C100.711 32.6679 103.874 61.4021 105.772 82.3187C106.862 94.343 119.13 111.399 117.974 115.744C117.974 115.744 96.873 134.571 60.1622 119.219C60.1622 119.219 63.6307 114.006 56.404 96.3387C49.1773 78.6718 30.3891 70.5633 45.1308 35.519" fill="#FF5722"/>
<path d="M136.133 37.0979C136.138 38.4134 136.653 39.6754 137.57 40.617C138.487 41.5585 139.733 42.1061 141.046 42.1437C142.358 42.1813 143.634 41.706 144.603 40.8184C145.572 39.9308 146.159 38.7006 146.239 37.3876C146.246 37.2911 146.248 37.1944 146.248 37.0979C146.232 35.7648 145.691 34.4919 144.745 33.5551C143.798 32.6182 142.521 32.0929 141.19 32.0929C139.859 32.0929 138.582 32.6182 137.635 33.5551C136.689 34.4919 136.148 35.7648 136.132 37.0979" fill="#03B193"/>
<path d="M19.0109 98.7348L5.53962 88.1615L1.7561 100.703L19.0109 98.7348Z" fill="#FF5722"/>
<path d="M142.976 97.8029L138.889 106.051L147.121 110.145L151.207 101.897L142.976 97.8029Z" fill="#105060"/>
</g>
<defs>
<clipPath id="clip0">
<rect width="163" height="142" fill="white" transform="translate(0.833252)"/>
</clipPath>
</defs>
</svg>
