<svg width="164" height="142" viewBox="0 0 164 142" fill="none" xmlns="http://www.w3.org/2000/svg">
<g clip-path="url(#clip0)">
<path opacity="0.2" d="M22.7455 26.1279C36.0092 9.76412 56.7235 -0.947262 78.0023 0.0664258C98.297 1.03393 112.04 17.4439 127.521 28.6861C140.542 38.1412 154.661 47.9187 160.218 64.0015C176.953 112.424 118.689 136.173 80.8339 133.367C56.5309 131.566 31.803 119.094 18.2793 97.9676C3.72396 75.2297 5.79946 47.0318 22.7455 26.1279Z" fill="#DBDBDB"/>
<path d="M103.585 31.8978V79.625C103.547 81.7784 102.676 83.8289 101.162 85.3291C99.648 86.8294 97.6136 87.6573 95.5035 87.632H34.4781C32.3689 87.6559 30.3359 86.8273 28.823 85.3272C27.3101 83.8272 26.4399 81.7774 26.4023 79.625V31.8978C26.4393 29.7449 27.3093 27.6943 28.8222 26.1935C30.3352 24.6927 32.3683 23.8635 34.4781 23.887H95.5035C97.6138 23.8621 99.6481 24.6902 101.162 26.1906C102.676 27.6911 103.547 29.742 103.585 31.8955" fill="#FFDAB8"/>
<path d="M57.7506 64.1887C57.7838 64.1031 57.8364 64.0268 57.9043 63.9663C57.9722 63.9057 58.0535 63.8624 58.141 63.8403H59.5085C60.1263 63.8395 60.7185 63.5888 61.1553 63.143C61.5921 62.6972 61.8377 62.0928 61.8386 61.4624V59.1829C61.8382 58.5523 61.5925 57.9476 61.1556 57.5017C60.7187 57.0558 60.1264 56.8052 59.5085 56.8048H58.141C58.0535 56.782 57.9725 56.7385 57.9047 56.6777C57.8369 56.6169 57.784 56.5404 57.7506 56.4548C57.6116 56.0563 57.4518 55.6658 57.272 55.2847C57.2359 55.2017 57.2199 55.111 57.2253 55.0204C57.2308 54.9298 57.2576 54.8419 57.3034 54.7641L58.2775 53.7732C58.7144 53.3266 58.9597 52.7212 58.9597 52.0902C58.9597 51.4591 58.7144 50.8539 58.2775 50.4073L56.6982 48.7955C56.482 48.5738 56.2251 48.3978 55.9421 48.2778C55.6591 48.1577 55.3557 48.0959 55.0492 48.0959C54.7428 48.0959 54.4392 48.1577 54.1562 48.2778C53.8732 48.3978 53.6163 48.5738 53.4001 48.7955L52.4275 49.7881C52.3443 49.8456 52.2448 49.8731 52.1445 49.8663C52.0653 49.869 51.9865 49.8531 51.9144 49.8194C51.5418 49.6359 51.1598 49.4729 50.7701 49.331C50.6855 49.2974 50.6101 49.2435 50.5503 49.1739C50.4904 49.1043 50.448 49.0209 50.4265 48.931V47.5369C50.4259 46.9061 50.18 46.3012 49.7428 45.8553C49.3056 45.4095 48.7128 45.159 48.0948 45.1588H45.8636C45.2457 45.159 44.6531 45.4096 44.2162 45.8555C43.7792 46.3015 43.5336 46.9062 43.5334 47.5369V48.931C43.5117 49.0208 43.4693 49.1039 43.4096 49.1735C43.35 49.2431 43.2748 49.2971 43.1906 49.331C42.7998 49.4722 42.4171 49.6353 42.044 49.8194C41.9716 49.8522 41.893 49.8681 41.8139 49.8663C41.7136 49.8727 41.6142 49.8453 41.5309 49.7881L40.5583 48.7955C40.3421 48.5748 40.0853 48.3997 39.8027 48.2803C39.5202 48.1608 39.2174 48.0993 38.9116 48.0993C38.6058 48.0993 38.3028 48.1608 38.0203 48.2803C37.7377 48.3997 37.4811 48.5748 37.2649 48.7955L35.6856 50.4073C35.4689 50.6282 35.2969 50.8906 35.1796 51.1794C35.0623 51.4681 35.0021 51.7776 35.0021 52.0902C35.0021 52.4028 35.0623 52.7124 35.1796 53.0012C35.2969 53.2899 35.4689 53.5523 35.6856 53.7732L36.6565 54.7641C36.7026 54.8417 36.7299 54.9295 36.7361 55.02C36.7422 55.1106 36.7271 55.2013 36.6919 55.2847C36.5109 55.6655 36.3507 56.0561 36.2117 56.4548C36.1786 56.5406 36.1257 56.6172 36.0578 56.678C35.9899 56.7389 35.9089 56.7822 35.8213 56.8048H34.4514C33.8337 56.8058 33.2416 57.0567 32.8048 57.5025C32.3681 57.9482 32.1224 58.5525 32.1213 59.1829V61.4624C32.1224 62.0928 32.3681 62.697 32.8048 63.1428C33.2416 63.5885 33.8337 63.8393 34.4514 63.8403H35.8191C35.907 63.8625 35.9885 63.9058 36.0567 63.9666C36.1249 64.0275 36.1778 64.1042 36.211 64.1902C36.35 64.5887 36.5098 64.9794 36.6896 65.3606C36.7254 65.4437 36.741 65.5344 36.7351 65.6251C36.7292 65.7157 36.7019 65.8033 36.6557 65.881L35.6833 66.8713C35.4662 67.092 35.2939 67.3543 35.1764 67.6431C35.0589 67.9319 34.9983 68.2414 34.9983 68.5541C34.9983 68.8669 35.0589 69.1765 35.1764 69.4653C35.2939 69.7541 35.4662 70.0165 35.6833 70.2372L37.2609 71.8488C37.4773 72.0702 37.7343 72.2457 38.0173 72.3656C38.3002 72.4854 38.6037 72.5471 38.9101 72.5471C39.2164 72.5471 39.5198 72.4854 39.8027 72.3656C40.0857 72.2457 40.3427 72.0702 40.5591 71.8488L41.5317 70.8564C41.6149 70.7991 41.7144 70.7715 41.8146 70.778C41.8937 70.7754 41.9725 70.7913 42.0447 70.8243C42.4175 71.0075 42.7995 71.1706 43.1891 71.3128C43.2737 71.3464 43.3492 71.4002 43.4091 71.4698C43.469 71.5395 43.5116 71.6228 43.5334 71.7127V73.1069C43.5334 73.7376 43.779 74.3424 44.216 74.7884C44.653 75.2344 45.2456 75.4848 45.8636 75.4848H48.0948C48.7129 75.4848 49.3058 75.2343 49.743 74.7884C50.1802 74.3425 50.4261 73.7377 50.4265 73.1069V71.7127C50.4482 71.6232 50.4903 71.5402 50.5497 71.4706C50.609 71.4011 50.6839 71.347 50.7678 71.3128C51.0038 71.2417 51.2327 71.1487 51.4519 71.0349C51.6755 70.9322 51.9064 70.8463 52.1423 70.778C52.2426 70.7711 52.3421 70.7987 52.4252 70.8564L53.3978 71.8488C53.6141 72.0704 53.871 72.2463 54.154 72.3663C54.437 72.4863 54.7404 72.5481 55.0468 72.5481C55.3533 72.5481 55.6567 72.4863 55.9396 72.3663C56.2226 72.2463 56.4797 72.0704 56.696 71.8488L58.2728 70.2372C58.4891 70.0165 58.6606 69.7545 58.7777 69.4661C58.8947 69.1777 58.955 68.8688 58.955 68.5566C58.955 68.2445 58.8947 67.9353 58.7777 67.647C58.6606 67.3586 58.4891 67.0967 58.2728 66.876L57.3027 65.8834C57.2561 65.806 57.2285 65.7182 57.2223 65.6275C57.2162 65.5369 57.2316 65.4461 57.2673 65.3629C57.4484 64.9808 57.6086 64.5888 57.7474 64.1887H57.7506ZM53.325 60.3234C53.3248 61.6034 52.9527 62.8546 52.2558 63.9189C51.5588 64.9831 50.5683 65.8124 49.4095 66.3021C48.2507 66.7919 46.9756 66.9199 45.7455 66.67C44.5154 66.4202 43.3854 65.8037 42.4986 64.8985C41.6119 63.9932 41.0081 62.84 40.7635 61.5845C40.519 60.329 40.6448 59.0277 41.1249 57.8451C41.6051 56.6626 42.418 55.6519 43.461 54.9409C44.5039 54.2299 45.7299 53.8505 46.9842 53.8506C48.6655 53.8527 50.2774 54.5354 51.4661 55.7489C52.6548 56.9624 53.3234 58.6075 53.325 60.3234Z" fill="#FF5722"/>
<path d="M70.8729 77.704H69.7224C69.4286 77.704 69.147 77.585 68.9393 77.373C68.7316 77.1611 68.6147 76.8734 68.6147 76.5736V44.073C68.6147 43.7732 68.7316 43.4858 68.9393 43.2738C69.147 43.0618 69.4286 42.9428 69.7224 42.9428H70.8729C71.1666 42.9428 71.4483 43.0618 71.656 43.2738C71.8637 43.4858 71.9805 43.7732 71.9805 44.073V76.5736C71.9805 76.8734 71.8637 77.1611 71.656 77.373C71.4483 77.585 71.1666 77.704 70.8729 77.704Z" fill="#FFA733"/>
<path d="M73.4018 73.6767H67.1953C66.9337 73.6767 66.6829 73.5706 66.4979 73.3819C66.3129 73.1931 66.209 72.937 66.209 72.67V71.6258C66.2089 71.4936 66.2344 71.3627 66.2839 71.2405C66.3334 71.1183 66.4061 71.0072 66.4977 70.9137C66.5893 70.8202 66.698 70.7462 66.8178 70.6957C66.9375 70.6451 67.0657 70.6191 67.1953 70.6192H73.4018C73.5314 70.6191 73.6598 70.6451 73.7795 70.6957C73.8992 70.7462 74.0079 70.8202 74.0995 70.9137C74.1912 71.0072 74.2639 71.1183 74.3134 71.2405C74.3629 71.3627 74.3884 71.4936 74.3883 71.6258V72.67C74.3883 72.937 74.2843 73.1931 74.0994 73.3819C73.9144 73.5706 73.6634 73.6767 73.4018 73.6767Z" fill="#FF8F15"/>
<path d="M82.3534 77.704H81.2029C80.909 77.7036 80.6274 77.5841 80.4198 77.3719C80.2121 77.1597 80.0955 76.872 80.0955 76.5721V44.073C80.0957 43.7733 80.2123 43.4859 80.42 43.274C80.6276 43.0621 80.9092 42.943 81.2029 42.9428H82.3534C82.6474 42.9426 82.9295 43.0615 83.1376 43.2734C83.3457 43.4854 83.4628 43.773 83.4632 44.073V76.5721C83.4632 76.7208 83.4346 76.8682 83.3788 77.0055C83.323 77.1429 83.2412 77.2677 83.1382 77.3728C83.0351 77.478 82.9127 77.5612 82.7781 77.618C82.6434 77.6749 82.4991 77.7041 82.3534 77.704Z" fill="#FFA733"/>
<path d="M84.883 57.6596H78.6765C78.5468 57.6596 78.4185 57.6334 78.2988 57.5827C78.179 57.5321 78.0702 57.458 77.9786 57.3643C77.8869 57.2707 77.8142 57.1595 77.7647 57.0371C77.7152 56.9148 77.69 56.7838 77.6902 56.6515V55.6071C77.6903 55.475 77.7158 55.3444 77.7655 55.2224C77.8151 55.1004 77.8877 54.9895 77.9793 54.8962C78.0709 54.8028 78.1797 54.7288 78.2993 54.6783C78.4189 54.6279 78.547 54.602 78.6765 54.6021H84.883C85.0125 54.602 85.1407 54.6279 85.2604 54.6783C85.38 54.7288 85.4886 54.8028 85.5802 54.8962C85.6718 54.9895 85.7444 55.1004 85.794 55.2224C85.8437 55.3444 85.8694 55.475 85.8695 55.6071V56.6515C85.8697 56.7838 85.8443 56.9148 85.7948 57.0371C85.7453 57.1595 85.6727 57.2707 85.5811 57.3643C85.4895 57.458 85.3807 57.5321 85.2609 57.5827C85.1411 57.6334 85.0127 57.6596 84.883 57.6596Z" fill="#FF8F15"/>
<path d="M93.9673 77.704H92.8168C92.6713 77.7039 92.5271 77.6746 92.3927 77.6177C92.2583 77.5607 92.1362 77.4774 92.0334 77.3723C91.9305 77.2672 91.8489 77.1422 91.7933 77.005C91.7377 76.8677 91.7091 76.7206 91.7092 76.5721V44.073C91.7092 43.7732 91.8259 43.4858 92.0336 43.2738C92.2413 43.0618 92.5231 42.9428 92.8168 42.9428H93.9673C94.2611 42.9428 94.5427 43.0618 94.7504 43.2738C94.9582 43.4858 95.0748 43.7732 95.0748 44.073V76.5721C95.0749 76.7206 95.0463 76.8677 94.9907 77.005C94.9351 77.1422 94.8537 77.2672 94.7508 77.3723C94.648 77.4774 94.5257 77.5607 94.3913 77.6177C94.2569 77.6746 94.1129 77.7039 93.9673 77.704Z" fill="#FFA733"/>
<path d="M96.4954 65.0029H90.288C90.0262 65.0024 89.7751 64.8958 89.5901 64.7066C89.4052 64.5174 89.3016 64.2611 89.3018 63.9938V62.9511C89.302 62.6842 89.4059 62.4284 89.5909 62.2397C89.7758 62.0509 90.0265 61.9448 90.288 61.9446H96.4954C96.7569 61.9448 97.0076 62.0509 97.1925 62.2397C97.3774 62.4284 97.4814 62.6842 97.4816 62.9511V63.9954C97.4818 64.2626 97.3782 64.519 97.1933 64.7082C97.0083 64.8974 96.7572 65.004 96.4954 65.0044" fill="#FF8F15"/>
<path d="M103.585 31.8978V36.4685H26.4016V31.8978C26.4386 29.7447 27.3086 27.6939 28.8217 26.1931C30.3348 24.6923 32.3682 23.8633 34.4781 23.887H95.5035C97.6138 23.8621 99.6481 24.6902 101.162 26.1906C102.676 27.6911 103.547 29.742 103.585 31.8955" fill="#FF5722"/>
<path d="M151.889 72.8275L149.41 70.5833C152.5 67.028 157.14 58.4456 158.604 53.5783C160.143 48.4613 157.949 47.374 157.228 47.0163C154.706 45.7639 149.828 46.2485 144.495 48.2688C140.001 49.976 135.986 52.4754 133.779 54.8832C133.508 55.183 133.14 55.373 132.743 55.4185C132.345 55.4639 131.945 55.3618 131.616 55.1307C131.42 54.9914 131.256 54.8106 131.134 54.6005C131.013 54.3905 130.938 54.1562 130.913 53.9137C130.889 53.6712 130.916 53.4261 130.993 53.1953C131.07 52.9645 131.195 52.7533 131.359 52.5763C133.952 49.7584 138.346 46.9944 143.34 45.0978C146.338 43.9596 153.833 41.5707 158.673 43.9706C160.715 44.9828 163.834 47.7061 161.77 54.5686C160.174 59.8844 155.279 68.9269 151.889 72.8275Z" fill="#03B193"/>
<path d="M71.6646 142C69.7949 142.056 67.9413 141.632 66.2741 140.766C63.914 139.451 61.2486 136.47 61.9543 129.747C62.482 124.721 65.5354 120.407 68.6571 116.696C68.8002 116.525 68.9752 116.385 69.172 116.283C69.3688 116.182 69.5834 116.122 69.8033 116.106C70.0231 116.091 70.244 116.12 70.4527 116.192C70.6613 116.265 70.8537 116.378 71.0187 116.528C71.3439 116.821 71.5428 117.234 71.5726 117.676C71.6025 118.118 71.4609 118.554 71.1783 118.891C68.299 122.307 65.6835 125.984 65.2502 130.108C64.8398 134.015 65.7188 136.605 67.8633 137.798C72.9355 140.627 84.4834 136.223 95.3218 127.326L97.3989 129.962C88.0292 137.652 78.4893 142 71.6646 142Z" fill="#03B193"/>
<path d="M106.564 107.215C106.218 107.214 105.879 107.109 105.592 106.912C105.304 106.716 105.08 106.436 104.947 106.11C104.815 105.783 104.78 105.424 104.847 105.077C104.914 104.731 105.081 104.412 105.325 104.162L113.19 96.1378C113.522 95.8167 113.962 95.6403 114.419 95.6463C114.876 95.6522 115.312 95.8398 115.635 96.1695C115.959 96.4992 116.143 96.9448 116.148 97.4109C116.154 97.8771 115.982 98.3273 115.667 98.6654L107.804 106.69C107.642 106.856 107.448 106.988 107.236 107.078C107.023 107.168 106.795 107.215 106.564 107.215Z" fill="#03B193"/>
<path d="M117.771 118.651C117.424 118.651 117.085 118.547 116.797 118.35C116.508 118.154 116.283 117.874 116.15 117.548C116.018 117.221 115.983 116.861 116.051 116.514C116.118 116.167 116.285 115.848 116.531 115.598L124.395 107.574C124.724 107.239 125.169 107.05 125.634 107.05C126.098 107.05 126.544 107.239 126.872 107.574C127.2 107.909 127.385 108.364 127.385 108.838C127.385 109.312 127.2 109.766 126.872 110.101L119.01 118.128C118.847 118.294 118.654 118.426 118.441 118.515C118.229 118.605 118.001 118.651 117.771 118.651Z" fill="#03B193"/>
<path d="M98.1596 134.633L88.9088 125.191C88.0885 124.354 87.4377 123.36 86.9937 122.267C86.5498 121.173 86.3213 120.002 86.3213 118.818C86.3213 117.634 86.5498 116.462 86.9937 115.369C87.4377 114.275 88.0885 113.282 88.9088 112.445L103.033 98.0278L124.777 120.217L110.649 134.633C108.992 136.323 106.745 137.272 104.403 137.272C102.061 137.272 99.8142 136.323 98.1573 134.633" fill="#72C1AA"/>
<path d="M120.68 126.068L97.823 102.741C97.554 102.466 97.4028 102.093 97.4028 101.704C97.4028 101.316 97.554 100.943 97.823 100.667L101.9 96.5062C102.034 96.3698 102.192 96.2613 102.366 96.1875C102.541 96.1136 102.727 96.0759 102.916 96.0759C103.105 96.0759 103.292 96.1136 103.466 96.1875C103.64 96.2613 103.799 96.3698 103.932 96.5062L126.789 119.833C126.922 119.968 127.028 120.13 127.101 120.308C127.173 120.485 127.21 120.676 127.21 120.869C127.21 121.061 127.173 121.252 127.101 121.43C127.028 121.607 126.922 121.769 126.789 121.905L122.711 126.068C122.441 126.343 122.076 126.497 121.695 126.497C121.314 126.497 120.948 126.343 120.679 126.068" fill="#FFDAB8"/>
<path d="M158.762 72.7821L149.511 63.341C148.691 62.5038 147.717 61.8397 146.646 61.3866C145.574 60.9335 144.426 60.7001 143.266 60.7001C142.106 60.7001 140.957 60.9335 139.886 61.3866C138.814 61.8397 137.84 62.5038 137.02 63.341L122.894 77.7558L144.638 99.9464L158.762 85.5317C159.583 84.6945 160.233 83.7007 160.677 82.6068C161.121 81.513 161.35 80.3404 161.35 79.1564C161.35 77.9724 161.121 76.8 160.677 75.7062C160.233 74.6123 159.583 73.6185 158.762 72.7813" fill="#72C1AA"/>
<path d="M150.37 95.765L127.513 72.4384C127.244 72.1638 126.878 72.0096 126.498 72.0096C126.117 72.0096 125.751 72.1638 125.482 72.4384L121.404 76.5996C121.27 76.7358 121.164 76.8975 121.091 77.0756C121.019 77.2537 120.982 77.4447 120.982 77.6375C120.982 77.8303 121.019 78.0212 121.091 78.1993C121.164 78.3774 121.27 78.5393 121.404 78.6756L144.26 101.998C144.393 102.135 144.552 102.243 144.726 102.317C144.9 102.39 145.087 102.428 145.276 102.428C145.465 102.428 145.652 102.39 145.826 102.317C146 102.243 146.159 102.135 146.292 101.998L150.37 97.8385C150.639 97.5629 150.79 97.1895 150.79 96.8004C150.79 96.4114 150.639 96.0384 150.37 95.7627" fill="#FFDAB8"/>
<path d="M129.127 22.7554L128.574 31.4642L137.108 32.0286L137.661 23.3198L129.127 22.7554Z" fill="#F9A01E"/>
<path d="M26.5343 124.245L11.8977 129.232L19.4327 138.489L26.5343 124.245Z" fill="#0D5060"/>
<path d="M0.166525 18.4695C0.163015 19.5881 0.58791 20.6638 1.35054 21.4672C2.11317 22.2707 3.15325 22.7382 4.24888 22.7702C5.34451 22.8021 6.40902 22.3961 7.21537 21.6384C8.02173 20.8808 8.506 19.8315 8.56511 18.7145C8.57125 18.6362 8.57279 18.5517 8.57279 18.4695C8.57279 17.3318 8.13001 16.2407 7.34177 15.4363C6.55353 14.6318 5.4844 14.1799 4.36966 14.1799C3.25491 14.1799 2.18578 14.6318 1.39754 15.4363C0.609299 16.2407 0.166525 17.3318 0.166525 18.4695Z" fill="#03B193"/>
</g>
<defs>
<clipPath id="clip0">
<rect width="163" height="142" fill="white" transform="translate(0.166504)"/>
</clipPath>
</defs>
</svg>
