<?xml version="1.0" encoding="UTF-8"?>
<svg width="20px" height="20px" viewBox="0 0 20 20" version="1.1" xmlns="http://www.w3.org/2000/svg" xmlns:xlink="http://www.w3.org/1999/xlink">
    <!-- Generator: Sketch 55.2 (78181) - https://sketchapp.com -->
    <title>minus-Widgets</title>
    <desc>Created with Sketch.</desc>
    <g id="页面1" stroke="none" stroke-width="1" fill="none" fill-rule="evenodd">
        <g id="Dynamic-Widgets1.0" transform="translate(-4929.000000, -3383.000000)">
            <g id="minus-Widgets" transform="translate(4927.000000, 3381.000000)">
                <g id="添加">
                    <rect id="Rectangle-" fill="#FFFFFF" fill-rule="evenodd" opacity="0" x="0" y="0" width="24" height="24"></rect>
                    <path d="M12,21 C16.9705627,21 21,16.9705627 21,12 C21,7.02943725 16.9705627,3 12,3 C7.02943725,3 3,7.02943725 3,12 C3,16.9705627 7.02943725,21 12,21 Z M12,22 C6.4771525,22 2,17.5228475 2,12 C2,6.4771525 6.4771525,2 12,2 C17.5228475,2 22,6.4771525 22,12 C22,17.5228475 17.5228475,22 12,22 Z" id="Oval" fill="#999999" fill-rule="nonzero"></path>
                    <g id="Combined-Shape备份" transform="translate(7.000000, 7.000000)" fill="#999999" fill-rule="evenodd">
                        <rect id="Combined-Shape" x="0" y="4.5" width="10" height="1"></rect>
                    </g>
                </g>
            </g>
        </g>
    </g>
</svg>