<svg xmlns="http://www.w3.org/2000/svg" width="24" height="24" viewBox="0 0 24 24">
    <g fill="#666" fill-rule="evenodd">
        <path d="M3 4h18a1 1 0 0 1 1 1v14a1 1 0 0 1-1 1H3a1 1 0 0 1-1-1V5a1 1 0 0 1 1-1zm.5 1a.5.5 0 0 0-.5.5v13a.5.5 0 0 0 .5.5h17a.5.5 0 0 0 .5-.5v-13a.5.5 0 0 0-.5-.5h-17z"/>
        <path fill-rule="nonzero" d="M9 13a3 3 0 1 1 0-6 3 3 0 0 1 0 6zm0-1a2 2 0 1 0 0-4 2 2 0 0 0 0 4z"/>
        <path d="M4 17a5 5 0 0 1 10 0h-1a4 4 0 1 0-8 0H4z"/>
        <rect width="7" height="1" x="13" y="8" rx=".5"/>
        <rect width="6" height="1" x="14" y="11.5" rx=".5"/>
        <rect width="5" height="1" x="15" y="15" rx=".5"/>
    </g>
</svg>
