<svg width="24" height="24" viewBox="0 0 24 24" fill="none" xmlns="http://www.w3.org/2000/svg">
<path fill-rule="evenodd" clip-rule="evenodd" d="M11.9999 1.5C13.0653 1.5 13.9522 2.23633 14.1422 3.20956C17.0799 3.94266 19.25 6.51926 19.25 9.58523L19.2506 14.9863C20.5962 15.6411 21.5 17.0197 21.5 18.5836V19L15.7216 19.0011C15.4933 20.8604 13.9142 22.3 12 22.3C10.0858 22.3 8.50666 20.8604 8.27835 19.0011L2.5 19V18.5836C2.5 17.0193 3.40429 15.6404 4.75042 14.9858L4.75 9.51173C4.75 6.45867 6.92615 3.89636 9.86251 3.19189C10.0579 2.22781 10.9406 1.5 11.9999 1.5ZM14.507 19.001L9.492 19L9.49785 19.0329C9.72806 20.2118 10.7616 21.1 12 21.1C13.2384 21.1 14.2719 20.2118 14.5022 19.0329L14.507 19.001ZM11.9999 2.7C11.5594 2.7 11.1889 2.96749 11.0659 3.3293L11.0386 3.43019C10.9459 3.88766 10.5964 4.24988 10.1425 4.35878C7.76737 4.92859 6.05949 6.93722 5.95507 9.28355L5.95 9.51163L5.95042 14.9857C5.95046 15.4451 5.68828 15.8641 5.27519 16.065C4.59941 16.3936 4.0928 16.9759 3.85326 17.6693L3.812 17.799H20.187L20.1468 17.6695C19.9273 17.034 19.4836 16.4919 18.8908 16.1527L18.7255 16.0654C18.354 15.8845 18.1046 15.5272 18.0584 15.1228L18.0506 14.9865L18.05 9.58523C18.05 7.12635 16.3113 4.98766 13.8516 4.37385C13.4447 4.27232 13.1239 3.96709 12.9987 3.57368L12.9644 3.43943C12.883 3.02257 12.4835 2.7 11.9999 2.7Z" fill="#333333"/>
</svg>
