<svg xmlns="http://www.w3.org/2000/svg" xmlns:xlink="http://www.w3.org/1999/xlink" width="72" height="72" viewBox="0 0 72 72">
    <defs>
        <path id="a" d="M.004.03V48h47.964V.03H.004z"/>
    </defs>
    <g fill="none" fill-rule="evenodd">
        <path fill="#FFF" d="M0 0h72v72H0z"/>
        <path fill="#FFF" d="M12 12h48v48H12z"/>
        <g transform="translate(12 12)">
            <mask id="b" fill="#fff">
                <use xlink:href="#a"/>
            </mask>
            <path stroke="#07B295" stroke-width="2" d="M44.06 25.713a4.123 4.123 0 0 1 0-3.424l2.747-6.042a2.138 2.138 0 0 0-1.198-2.888l-6.215-2.333a4.14 4.14 0 0 1-2.422-2.423l-2.334-6.216a2.132 2.132 0 0 0-2.882-1.196l-6.047 2.75A4.178 4.178 0 0 1 24 4.309a4.182 4.182 0 0 1-1.714-.37l-6.038-2.746a2.133 2.133 0 0 0-2.887 1.196l-2.334 6.215a4.14 4.14 0 0 1-2.422 2.422l-6.214 2.333a2.143 2.143 0 0 0-1.198 2.888l2.747 6.04a4.124 4.124 0 0 1 0 3.425l-2.747 6.043a2.138 2.138 0 0 0 1.198 2.887l6.215 2.334a4.14 4.14 0 0 1 2.422 2.422l2.333 6.213a2.141 2.141 0 0 0 2.002 1.39c.3 0 .601-.064.88-.19l6.048-2.75A4.176 4.176 0 0 1 24 43.69c.585 0 1.168.127 1.714.372l6.038 2.745a2.133 2.133 0 0 0 2.887-1.197l2.334-6.214a4.14 4.14 0 0 1 2.422-2.422l6.214-2.333a2.143 2.143 0 0 0 1.198-2.888l-2.747-6.041z" mask="url(#b)"/>
            <path fill="#FF5722" d="M20.183 18.212c0-1.103-.898-2-2-2-1.101 0-2 .899-2 2 0 1.102.899 2 2 2 1.102 0 2-.896 2-2zM29.42 27.45c-1.103 0-2 .898-2 2 0 1.1.899 2 2 2 1.102 0 2-.9 2-2 0-1.102-.896-2-2-2z"/>
            <rect width="24" height="2" x="12" y="23" fill="#FF5722" rx="1" transform="rotate(-45 24 24)"/>
        </g>
    </g>
</svg>
