<svg xmlns="http://www.w3.org/2000/svg" width="72" height="72" viewBox="0 0 72 72">
    <g fill="none" fill-rule="evenodd">
        <path fill="#07B295" d="M36 60c-13.255 0-24-10.745-24-24s10.745-24 24-24 24 10.745 24 24-10.745 24-24 24zm0-2c12.15 0 22-9.85 22-22s-9.85-22-22-22-22 9.85-22 22 9.85 22 22 22z"/>
        <rect width="2" height="20" x="35" y="20" fill="#FF5722" rx="1"/>
        <rect width="18" height="2" x="32" y="35" fill="#FF5722" rx="1"/>
    </g>
</svg>
