<svg xmlns="http://www.w3.org/2000/svg" width="16" height="16" viewBox="0 0 16 16">
    <path fill="#FF5722" fill-rule="evenodd" d="M8 16A8 8 0 1 1 8 0a8 8 0 0 1 0 16zm0-1A7 7 0 1 0 8 1a7 7 0 0 0 0 14zM8 3.5a.5.5 0 0 1 .5.5v5a.5.5 0 0 1-1 0V4a.5.5 0 0 1 .5-.5zm0 9A.75.75 0 1 1 8 11a.75.75 0 0 1 0 1.5z"/>
</svg>
