<svg width="79" height="29" viewBox="0 0 79 29" fill="none" xmlns="http://www.w3.org/2000/svg">
<path fill-rule="evenodd" clip-rule="evenodd" d="M11.863 14.5574C11.8702 15.7074 10.9721 16.6206 9.89364 16.6235C8.78983 16.628 7.91352 15.7186 7.91188 14.5703C7.90649 13.4435 8.77708 12.5035 9.88359 12.5014C10.9602 12.4991 11.8632 13.4322 11.863 14.5574ZM11.4911 1.47076L1.35807 12.5823C0.309311 13.7105 0.314158 15.4763 1.37224 16.6001L11.5689 27.6733C12.0829 28.2308 12.8054 28.5496 13.5717 28.5503L75.4739 28.4626C77.0149 28.4562 78.2701 27.1414 78.2654 25.5366L78.2001 3.37707C78.1934 1.7685 76.9335 0.460632 75.3931 0.469034L13.493 0.552952C12.7207 0.557189 12.0018 0.881471 11.4911 1.47076Z" fill="url(#paint0_linear)"/>
<defs>
<linearGradient id="paint0_linear" x1="3.40811" y1="25.982" x2="79.1055" y2="6.52679" gradientUnits="userSpaceOnUse">
<stop stop-color="#FF9557"/>
<stop offset="1" stop-color="#FF6B3D"/>
</linearGradient>
</defs>
</svg>
