<?xml version="1.0" encoding="UTF-8"?>
<svg width="20px" height="22px" viewBox="0 0 20 22" version="1.1" xmlns="http://www.w3.org/2000/svg" xmlns:xlink="http://www.w3.org/1999/xlink">
    <!-- Generator: Sketch 58 (84663) - https://sketch.com -->
    <title>icon/16/location</title>
    <desc>Created with Sketch.</desc>
    <defs>
        <filter x="-66.7%" y="-57.1%" width="233.3%" height="214.3%" filterUnits="objectBoundingBox" id="filter-1">
            <feOffset dx="0" dy="0" in="SourceAlpha" result="shadowOffsetOuter1"></feOffset>
            <feGaussianBlur stdDeviation="2" in="shadowOffsetOuter1" result="shadowBlurOuter1"></feGaussianBlur>
            <feColorMatrix values="0 0 0 0 0   0 0 0 0 0   0 0 0 0 0  0 0 0 0.15 0" type="matrix" in="shadowBlurOuter1" result="shadowMatrixOuter1"></feColorMatrix>
            <feMerge>
                <feMergeNode in="shadowMatrixOuter1"></feMergeNode>
                <feMergeNode in="SourceGraphic"></feMergeNode>
            </feMerge>
        </filter>
    </defs>
    <g id="页面1" stroke="none" stroke-width="1" fill="none" fill-rule="evenodd">
        <g id="Dynamic-Widgets1.0" transform="translate(-3255.000000, -3255.000000)" fill="#FFFFFF">
            <g id="编组-9" transform="translate(3132.000000, 3250.000000)">
                <g id="编组-2备份-3">
                    <g id="icon/16/location" transform="translate(125.000000, 8.000000)">
                        <g id="Group" filter="url(#filter-1)" transform="translate(2.000000, 1.000000)">
                            <path d="M6,0 C9.3137085,0 12,2.61167229 12,5.83333333 C12,7.98110736 10,10.7033296 6,14 C2,10.7033296 0,7.98110736 0,5.83333333 C0,2.61167229 2.6862915,0 6,0 Z M6,3 C4.62102697,3 3.5,4.12097908 3.5,5.49976475 C3.5,6.87893409 4.62094014,8 6,8 C7.37905986,8 8.5,6.87893409 8.5,5.49976475 C8.5,4.12097908 7.37897303,3 6,3 Z" id="Combined-Shape"></path>
                        </g>
                    </g>
                </g>
            </g>
        </g>
    </g>
</svg>