<svg width="2" height="6" viewBox="0 0 2 6" fill="none" xmlns="http://www.w3.org/2000/svg">
<path fill-rule="evenodd" clip-rule="evenodd" d="M0.113126 2.5847L2 4.76837e-07L2 6L0.113126 3.41424C-0.0377086 3.20819 -0.0377086 2.79075 0.113126 2.5847Z" fill="#FF9D26"/>
</svg>
